Nederlandse gewichten; stelsels, ijkwezen, vormen, makers en merken|1970||Uitgeverssmij De Tijdstroom|K. M. C. Zevenboom & D. A. Wittop Koning|||
Seven Day Circle. The History and Meaning of the Week.|1986|Chicago and London|The University of Chicago Press|Eviatar Zerubavel|||
Number and Pattern in African Cultures, third edition|1999|Chicago|Lawrence Hill Books|Claudia Zaslavsky|||
Windows Presentation Foundation 4.5 Cookbook|2012||Packt Publishing|Pavel Yosifovich & Jan Jansens|||
Unrolling Time. Christiaan Huygens and the Mathematization of Nature|1988|Cambridge|Cambridge University Press|Joella Yoder|||
The Quest. Energy, Security and the Remaking of the Modern World|2011|London|Allen Lane|Daniel Yergin|||
Money and Credit in China. A short History|1952|Cambridge, Massachusetts|Harvard University Press|Lien-sheng Yang|||
Money and Credit in China. A short History|1952|Cambridge, Massachusetts|Harvard University Press|Lien-sheng Yang|||
The Measure of Times Past. Pre-Newtonian Chronologies and the Rhetoric of Relative Time|1087|Chicago and London|The University of Chicago Press|Donald Wilcox|||
Culture and Inflation in Weimar Germany|2001|Berkeley Los Angeles London|University of California Press|Bernd Widdig|||
Casualties of Credit. The Engisch Financial Revolution 1620-1720|2011|Harvard University Press|Cambridge, Masachusetts, London, England|Carl Wennerlind|||
De aartsvaders. Grondleggers van het Nederlandse bedrijfsleven|1993|Amstel|Olympus|Wim Wennekens|||
The Two-income Trap. Why Middle-class Mothers and Fathers are Going Broke|2003||Basic Books|Elisabeth Warren & Amelia Tyagi|||
Solon The Liberator. A Study of the Agrarian Problem in Attika in the Seventh Century.|1938|Oxford|Oxford University Press|Robert Wallace|Octagon Books, INC., 1965||
The Italian City-Republics|1969|London|World University Library|Daniel Waley|||
Financing Cathedral Building In The Middle Ages. The Generoisity Of The Faithfull|2010|Amsterdam|Amsterdam University Press|Wim Vroom|||
